<svg width="20" height="15" viewBox="0 0 13 13" fill="none" xmlns="http://www.w3.org/2000/svg">
  <path fill-rule="evenodd" clip-rule="evenodd" d="M10 5C10 6.01927 9.69501 6.96731 9.17131 7.75783L12.47 11.06L11.06 12.47L7.75786 9.17129C6.96734 9.695 6.01929 10 5 10C2.23858 10 0 7.76142 0 5C0 2.23858 2.23858 0 5 0C7.76142 0 10 2.23858 10 5ZM5 8.2C6.76731 8.2 8.2 6.76731 8.2 5C8.2 3.23269 6.76731 1.8 5 1.8C3.23269 1.8 1.8 3.23269 1.8 5C1.8 6.76731 3.23269 8.2 5 8.2Z" fill="#333333"/>
</svg>
